{
    "react": {
        "title": "React Js",
        "about": "This is React",
        "tree": [
            {
                "id": "1",
                "title": "Intro / Prerequisites",
                "items": [
                    {
                        "id": "2",
                        "title": "Intro",
                        "content": "another.md"
                    },
                    {
                        "id": "3",
                        "title": "Prerequisites",
                        "content": "mosh.md"
                    }
                ]
            },
            {
                "id": "4",
                "title": "Lesson 1",
                "items": [
                    {
                        "id": "5",
                        "title": "Create React App",
                        "video": "vid_url",
                        "items": [
                            {
                                "id": "6",
                                "title": "Docs",
                                "content": "react-intro.md"
                            },
                            {
                                "id": "7",
                                "title": "Examples",
                                "content": "react-intro.md"
                            },
                            {
                                "id": "8",
                                "title": "Assignments",
                                "items": [
                                    {
                                        "id": "9",
                                        "title": "Bonus",
                                        "content": "react-intro.md"
                                    },
                                    {
                                        "id": "10",
                                        "title": "Light",
                                        "content": "react-intro.md"
                                    }
                                ]
                            }
                        ]
                    },
                    {
                        "id": "11",
                        "title": "What is JSX ?",
                        "content": "react-intro.md"
                    }
                ]
            }
        ]
    }
}